<define-tag pagetitle>DLA-3241-1 firefox-esr</define-tag>
<define-tag report_date>2022-12-15</define-tag>
<define-tag secrefs>CVE-2022-46872 CVE-2022-46874 CVE-2022-46878 CVE-2022-46880 CVE-2022-46881 CVE-2022-46882</define-tag>
<define-tag packages>firefox-esr</define-tag>
<define-tag isvulnerable>yes</define-tag>
<define-tag fixed>yes</define-tag>
<define-tag fixed-section>no</define-tag>

#use wml::debian::security

