<define-tag pagetitle>DLA-3229-1 node-log4js</define-tag>
<define-tag report_date>2022-12-07</define-tag>
<define-tag secrefs>CVE-2022-21704</define-tag>
<define-tag packages>node-log4js</define-tag>
<define-tag isvulnerable>yes</define-tag>
<define-tag fixed>yes</define-tag>
<define-tag fixed-section>no</define-tag>

#use wml::debian::security

