<define-tag pagetitle>DLA-3144-1 connman</define-tag>
<define-tag report_date>2022-10-10</define-tag>
<define-tag secrefs>CVE-2022-23096 CVE-2022-23097 CVE-2022-23098 CVE-2022-32293 Bug#1004935 Bug#1016976</define-tag>
<define-tag packages>connman</define-tag>
<define-tag isvulnerable>yes</define-tag>
<define-tag fixed>yes</define-tag>
<define-tag fixed-section>no</define-tag>

#use wml::debian::security

