<define-tag pagetitle>DLA-3204-1 vim</define-tag>
<define-tag report_date>2022-11-24</define-tag>
<define-tag secrefs>CVE-2022-0318 CVE-2022-0392 CVE-2022-0629 CVE-2022-0696 CVE-2022-1619 CVE-2022-1621 CVE-2022-1785 CVE-2022-1897 CVE-2022-1942 CVE-2022-2000 CVE-2022-2129 CVE-2022-3235 CVE-2022-3256 CVE-2022-3352</define-tag>
<define-tag packages>vim</define-tag>
<define-tag isvulnerable>yes</define-tag>
<define-tag fixed>yes</define-tag>
<define-tag fixed-section>no</define-tag>

#use wml::debian::security

