<define-tag pagetitle>DLA-3212-1 twisted</define-tag>
<define-tag report_date>2022-11-28</define-tag>
<define-tag secrefs>CVE-2022-39348</define-tag>
<define-tag packages>twisted</define-tag>
<define-tag isvulnerable>yes</define-tag>
<define-tag fixed>yes</define-tag>
<define-tag fixed-section>no</define-tag>

#use wml::debian::security

