<define-tag pagetitle>DLA-2962-1 pjproject</define-tag>
<define-tag report_date>2022-03-28</define-tag>
<define-tag secrefs>CVE-2021-32686 CVE-2021-37706 CVE-2021-41141 CVE-2021-43299 CVE-2021-43300 CVE-2021-43301 CVE-2021-43302 CVE-2021-43303 CVE-2021-43804 CVE-2021-43845 CVE-2022-21722 CVE-2022-21723 CVE-2022-23608 CVE-2022-24754 CVE-2022-24764</define-tag>
<define-tag packages>pjproject</define-tag>
<define-tag isvulnerable>yes</define-tag>
<define-tag fixed>yes</define-tag>
<define-tag fixed-section>no</define-tag>

#use wml::debian::security

