<define-tag pagetitle>DSA-5026-1 firefox-esr</define-tag>
<define-tag report_date>2021-12-19</define-tag>
<define-tag secrefs>CVE-2021-43546 CVE-2021-43545 CVE-2021-43543 CVE-2021-43542 CVE-2021-43541 CVE-2021-43539 CVE-2021-43538 CVE-2021-43537 CVE-2021-43536 CVE-2021-43535 CVE-2021-43534 CVE-2021-38509 CVE-2021-38508 CVE-2021-38507 CVE-2021-38506 CVE-2021-38504 CVE-2021-38503</define-tag>
<define-tag packages>firefox-esr</define-tag>
<define-tag isvulnerable>yes</define-tag>
<define-tag fixed>yes</define-tag>
<define-tag fixed-section>no</define-tag>

#use wml::debian::security



</dl>
