<define-tag pagetitle>DSA-4637-1 network-manager-ssh</define-tag>
<define-tag report_date>2020-3-09</define-tag>
<define-tag secrefs>CVE-2020-9355</define-tag>
<define-tag packages>network-manager-ssh</define-tag>
<define-tag isvulnerable>yes</define-tag>
<define-tag fixed>yes</define-tag>
<define-tag fixed-section>no</define-tag>

#use wml::debian::security



</dl>
