<define-tag pagetitle>DSA-4669-1 nodejs</define-tag>
<define-tag report_date>2020-4-29</define-tag>
<define-tag secrefs>CVE-2019-9511 CVE-2019-9513 CVE-2019-9514 CVE-2019-15604 CVE-2019-15605 CVE-2019-15606</define-tag>
<define-tag packages>nodejs</define-tag>
<define-tag isvulnerable>yes</define-tag>
<define-tag fixed>yes</define-tag>
<define-tag fixed-section>no</define-tag>

#use wml::debian::security



</dl>
