<define-tag pagetitle>DLA-2680-1 nginx</define-tag>
<define-tag report_date>2021-6-07</define-tag>
<define-tag secrefs>CVE-2017-20005</define-tag>
<define-tag packages>nginx</define-tag>
<define-tag isvulnerable>yes</define-tag>
<define-tag fixed>yes</define-tag>
<define-tag fixed-section>no</define-tag>

#use wml::debian::security

