<define-tag pagetitle>DLA-946-1 nss</define-tag>
<define-tag report_date>2017-5-19</define-tag>
<define-tag secrefs>CVE-2017-5461 CVE-2017-5462 Bug#862958</define-tag>
<define-tag packages>nss</define-tag>
<define-tag isvulnerable>yes</define-tag>
<define-tag fixed>yes</define-tag>
<define-tag fixed-section>no</define-tag>

#use wml::debian::security

