<define-tag pagetitle>DLA-3309-1 graphite-web</define-tag>
<define-tag report_date>2023-02-06</define-tag>
<define-tag secrefs>CVE-2022-4728 CVE-2022-4729 CVE-2022-4730</define-tag>
<define-tag packages>graphite-web</define-tag>
<define-tag isvulnerable>yes</define-tag>
<define-tag fixed>yes</define-tag>
<define-tag fixed-section>no</define-tag>

#use wml::debian::security
