<define-tag pagetitle>DLA-3336-1 node-url-parse</define-tag>
<define-tag report_date>2023-02-23</define-tag>
<define-tag secrefs>CVE-2021-3664 CVE-2021-27515 CVE-2022-0512 CVE-2022-0639 CVE-2022-0686 CVE-2022-0691 Bug#985110 Bug#991577</define-tag>
<define-tag packages>node-url-parse</define-tag>
<define-tag isvulnerable>yes</define-tag>
<define-tag fixed>yes</define-tag>
<define-tag fixed-section>no</define-tag>

#use wml::debian::security

