<define-tag pagetitle>DLA-2342-1 libjackson-json-java</define-tag>
<define-tag report_date>2020-08-24</define-tag>
<define-tag secrefs>CVE-2017-7525 CVE-2019-10172</define-tag>
<define-tag packages>libjackson-json-java</define-tag>
<define-tag isvulnerable>yes</define-tag>
<define-tag fixed>yes</define-tag>
<define-tag fixed-section>no</define-tag>

#use wml::debian::security

