<define-tag pagetitle>DLA-2406-1 jackson-databind</define-tag>
<define-tag report_date>2020-10-14</define-tag>
<define-tag secrefs>CVE-2020-25649</define-tag>
<define-tag packages>jackson-databind</define-tag>
<define-tag isvulnerable>yes</define-tag>
<define-tag fixed>yes</define-tag>
<define-tag fixed-section>no</define-tag>

#use wml::debian::security
