<define-tag pagetitle>DLA-1261-1 clamav</define-tag>
<define-tag report_date>2018-1-28</define-tag>
<define-tag secrefs>CVE-2017-12374 CVE-2017-12375 CVE-2017-12376 CVE-2017-12377 CVE-2017-12378 CVE-2017-12379 CVE-2017-12380 Bug#888484 Bug#824196</define-tag>
<define-tag packages>clamav</define-tag>
<define-tag isvulnerable>yes</define-tag>
<define-tag fixed>yes</define-tag>
<define-tag fixed-section>no</define-tag>

#use wml::debian::security

