<define-tag pagetitle>DLA-1278-1 librsvg</define-tag>
<define-tag report_date>2018-2-12</define-tag>
<define-tag secrefs>CVE-2018-1000041</define-tag>
<define-tag packages>librsvg</define-tag>
<define-tag isvulnerable>yes</define-tag>
<define-tag fixed>yes</define-tag>
<define-tag fixed-section>no</define-tag>

#use wml::debian::security

