<define-tag pagetitle>DSA-5061-1 wpewebkit</define-tag>
<define-tag report_date>2022-1-25</define-tag>
<define-tag secrefs>CVE-2021-30934 CVE-2021-30936 CVE-2021-30951 CVE-2021-30952 CVE-2021-30953 CVE-2021-30954 CVE-2021-30984</define-tag>
<define-tag packages>wpewebkit</define-tag>
<define-tag isvulnerable>yes</define-tag>
<define-tag fixed>yes</define-tag>
<define-tag fixed-section>no</define-tag>

#use wml::debian::security



</dl>
