<define-tag pagetitle>DSA-5136-1 postgresql-13</define-tag>
<define-tag report_date>2022-5-12</define-tag>
<define-tag secrefs>CVE-2022-1552</define-tag>
<define-tag packages>postgresql-13</define-tag>
<define-tag isvulnerable>yes</define-tag>
<define-tag fixed>yes</define-tag>
<define-tag fixed-section>no</define-tag>

#use wml::debian::security



</dl>
