<define-tag pagetitle>DLA-1909-1 freetype</define-tag>
<define-tag report_date>2019-09-04</define-tag>
<define-tag secrefs>CVE-2015-9381 CVE-2015-9382 CVE-2015-9383</define-tag>
<define-tag packages>freetype</define-tag>
<define-tag isvulnerable>yes</define-tag>
<define-tag fixed>yes</define-tag>
<define-tag fixed-section>no</define-tag>

#use wml::debian::security

