<define-tag pagetitle>DLA-1749-1 golang</define-tag>
<define-tag report_date>2019-04-03</define-tag>
<define-tag secrefs>CVE-2019-9741 Bug#924630</define-tag>
<define-tag packages>golang</define-tag>
<define-tag isvulnerable>yes</define-tag>
<define-tag fixed>yes</define-tag>
<define-tag fixed-section>no</define-tag>

#use wml::debian::security

