<define-tag pagetitle>DLA-758-1 libgd2</define-tag>
<define-tag report_date>2016-12-22</define-tag>
<define-tag secrefs>CVE-2016-9933 Bug#849038</define-tag>
<define-tag packages>libgd2</define-tag>
<define-tag isvulnerable>yes</define-tag>
<define-tag fixed>yes</define-tag>
<define-tag fixed-section>no</define-tag>

#use wml::debian::security

