<define-tag pagetitle>DLA-668-1 libass</define-tag>
<define-tag report_date>2016-10-19</define-tag>
<define-tag secrefs>CVE-2016-7969 CVE-2016-7972</define-tag>
<define-tag packages>libass</define-tag>
<define-tag isvulnerable>yes</define-tag>
<define-tag fixed>yes</define-tag>
<define-tag fixed-section>no</define-tag>

#use wml::debian::security

